﻿{
  "profiles": {
    "Otus.Teaching.PromocodeFactory.WebHost": {
      "commandName": "Project",
      "launchUrl": "swagger/index.html",
      "launchBrowser": true,
      "applicationUrl": "https://localhost:5001;http://localhost:5000",
      "environmentVariables": {
        "ASPNETCORE_ENVIRONMENT": "Development",
        "ConnectionStrings:PgConnectionString":"host=localhost;port=54320;database=otus_test_db;username=postgres;password=admin;ApplicationName=OtusHw"
        }
      }
    }
  }
}
